^C:\USERS\MINIS\ONEDRIVE\РАБОЧИЙ СТОЛ\1_OOP\1LAB\1LAB\1LAB.CPP|C:\USERS\MINIS\ONEDRIVE\РАБОЧИЙ СТОЛ\1_OOP\1LAB\1LAB\SOURCE.CPP
C:\USERS\MINIS\ONEDRIVE\Рабочий стол\1_OOP\1LAB\1LAB\DEBUG\VC142.PDB
C:\USERS\MINIS\ONEDRIVE\Рабочий стол\1_OOP\1LAB\1LAB\DEBUG\VC142.IDB
C:\USERS\MINIS\ONEDRIVE\Рабочий стол\1_OOP\1LAB\1LAB\DEBUG\SOURCE.OBJ
C:\USERS\MINIS\ONEDRIVE\Рабочий стол\1_OOP\1LAB\1LAB\DEBUG\1LAB.OBJ
^C:\USERS\MINIS\ONEDRIVE\РАБОЧИЙ СТОЛ\1_OOP\1LAB\1LAB\1LAB.CPP
C:\USERS\MINIS\ONEDRIVE\РАБОЧИЙ СТОЛ\1_OOP\1LAB\1LAB\DEBUG\VC142.PDB
^C:\USERS\MINIS\ONEDRIVE\РАБОЧИЙ СТОЛ\1_OOP\1LAB\1LAB\SOURCE.CPP
C:\USERS\MINIS\ONEDRIVE\РАБОЧИЙ СТОЛ\1_OOP\1LAB\1LAB\DEBUG\VC142.PDB
^C:\ПРОГА\1_OOP\1LAB\1LAB\1LAB.CPP|C:\ПРОГА\1_OOP\1LAB\1LAB\SOURCE.CPP
C:\Прога\1_OOP\1LAB\1LAB\DEBUG\VC142.PDB
C:\Прога\1_OOP\1LAB\1LAB\DEBUG\VC142.IDB
C:\Прога\1_OOP\1LAB\1LAB\DEBUG\SOURCE.OBJ
C:\Прога\1_OOP\1LAB\1LAB\DEBUG\1LAB.OBJ
^C:\ПРОГА\1_OOP\1LAB\1LAB\1LAB.CPP
C:\ПРОГА\1_OOP\1LAB\1LAB\DEBUG\VC142.PDB
^C:\ПРОГА\1_OOP\1LAB\1LAB\SOURCE.CPP
C:\ПРОГА\1_OOP\1LAB\1LAB\DEBUG\VC142.PDB
