^C:\ПРОГА\TMP\1LAB\1LAB.CPP|C:\ПРОГА\TMP\1LAB\SOURCE.CPP
C:\Прога\TMP\1LAB\X64\DEBUG\VC142.PDB
C:\Прога\TMP\1LAB\X64\DEBUG\VC142.IDB
C:\Прога\TMP\1LAB\X64\DEBUG\SOURCE.OBJ
C:\Прога\TMP\1LAB\X64\DEBUG\1LAB.OBJ
^C:\ПРОГА\TMP\1LAB\1LAB.CPP
C:\ПРОГА\TMP\1LAB\X64\DEBUG\VC142.PDB
^C:\ПРОГА\TMP\1LAB\SOURCE.CPP
C:\Прога\TMP\1LAB\X64\DEBUG\VC142.PDB
C:\Прога\TMP\1LAB\X64\DEBUG\VC142.IDB
C:\Прога\TMP\1LAB\X64\DEBUG\SOURCE.OBJ
^C:\ПРОГА\TMP\UNITTEST\PCH.CPP|C:\ПРОГА\TMP\UNITTEST\UNITTEST.CPP
C:\Прога\TMP\1LAB\X64\DEBUG\VC142.PDB
C:\Прога\TMP\1LAB\X64\DEBUG\VC142.IDB
C:\Прога\TMP\1LAB\X64\DEBUG\PCH.OBJ
^C:\ПРОГА\TMP\UNITTEST\PCH.CPP
C:\ПРОГА\TMP\1LAB\X64\DEBUG\PCH.OBJ
