^C:\USERS\OF913\SOURCE\REPOS\12_4_1_3\OOP\4LAB\UNITTEST\DEBUG\PCH.OBJ|C:\USERS\OF913\SOURCE\REPOS\12_4_1_3\OOP\4LAB\UNITTEST\DEBUG\UNITTEST.OBJ
C:\USERS\OF913\SOURCE\REPOS\12_4_1_3\OOP\4LAB\DEBUG\UNITTEST.DLL
C:\USERS\OF913\SOURCE\REPOS\12_4_1_3\OOP\4LAB\DEBUG\UNITTEST.ILK
C:\USERS\OF913\SOURCE\REPOS\12_4_1_3\OOP\4LAB\DEBUG\UNITTEST.PDB
^C:\USERS\OF913\ONEDRIVE\РАБОЧИЙ СТОЛ\4LAB_OOP\UNITTEST\DEBUG\PCH.OBJ|C:\USERS\OF913\ONEDRIVE\РАБОЧИЙ СТОЛ\4LAB_OOP\UNITTEST\DEBUG\UNITTEST.OBJ
C:\USERS\OF913\ONEDRIVE\Рабочий стол\4LAB_OOP\DEBUG\UNITTEST.DLL
C:\USERS\OF913\ONEDRIVE\Рабочий стол\4LAB_OOP\DEBUG\UNITTEST.ILK
C:\USERS\OF913\ONEDRIVE\РАБОЧИЙ СТОЛ\4LAB_OOP\DEBUG\UNITTEST.PDB
^C:\USERS\MINIS\DOWNLOADS\4LAB_OOP\UNITTEST\DEBUG\PCH.OBJ|C:\USERS\MINIS\DOWNLOADS\4LAB_OOP\UNITTEST\DEBUG\UNITTEST.OBJ
C:\USERS\MINIS\DOWNLOADS\4LAB_OOP\DEBUG\UNITTEST.DLL
C:\USERS\MINIS\DOWNLOADS\4LAB_OOP\DEBUG\UNITTEST.ILK
C:\USERS\MINIS\DOWNLOADS\4LAB_OOP\DEBUG\UNITTEST.PDB
^C:\ЛАБ23\4LAB_OOP\UNITTEST\DEBUG\PCH.OBJ|C:\ЛАБ23\4LAB_OOP\UNITTEST\DEBUG\UNITTEST.OBJ
C:\лаб23\4LAB_OOP\DEBUG\UNITTEST.DLL
C:\лаб23\4LAB_OOP\DEBUG\UNITTEST.ILK
C:\ЛАБ23\4LAB_OOP\DEBUG\UNITTEST.PDB
