#Command: "C:\Program Files (x86)\Microsoft Visual Studio\2019\Community\VC\Tools\MSVC\14.28.29910\bin\HostX86\x86\link.exe" /ERRORREPORT:PROMPT @C:\Users\of913\AppData\Local\Temp\tmpf50d83a941cb4e7abd6bebbfe4822193.rsp /nologo /incremental /fullbuild
^C:\USERS\OF913\SOURCE\REPOS\12_4_1_3\OOP\4LAB\UNITTEST\DEBUG\PCH.OBJ|C:\USERS\OF913\SOURCE\REPOS\12_4_1_3\OOP\4LAB\UNITTEST\DEBUG\UNITTEST.OBJ
C:\USERS\OF913\APPDATA\LOCAL\TEMP\LNK{5AC8AB37-E603-463D-8A93-8D909DC89E13}.TMP
