#Command: "C:\Program Files (x86)\Microsoft Visual Studio\2019\Community\VC\Tools\MSVC\14.28.29910\bin\HostX86\x86\link.exe" /ERRORREPORT:PROMPT @C:\Users\of913\AppData\Local\Temp\tmpaf3d27eb13b44de792ebcb3d01b20443.rsp /nologo /incremental /fullbuild
^C:\USERS\OF913\SOURCE\REPOS\12_4_1_3\OOP\4LAB\UNITTEST\DEBUG\PCH.OBJ|C:\USERS\OF913\SOURCE\REPOS\12_4_1_3\OOP\4LAB\UNITTEST\DEBUG\UNITTEST.OBJ
C:\USERS\OF913\APPDATA\LOCAL\TEMP\LNK{578028AC-15A1-4E3C-81D9-4EE06F88FF4C}.TMP
