^C:\USERS\OF913\SOURCE\REPOS\12_4_1_3\OOP\7LAB_A\7LAB_A\7LAB_A.CPP
/c /ZI /JMC /nologo /W3 /WX- /diagnostics:column /sdl /Od /Oy- /D WIN32 /D _DEBUG /D _CONSOLE /D _UNICODE /D UNICODE /Gm- /EHsc /RTC1 /MDd /GS /fp:precise /permissive- /Zc:wchar_t /Zc:forScope /Zc:inline /Fo"DEBUG\\" /Fd"DEBUG\VC142.PDB" /Gd /TP /analyze- /FC C:\USERS\OF913\SOURCE\REPOS\12_4_1_3\OOP\7LAB_A\7LAB_A\7LAB_A.CPP
^C:\USERS\OF913\SOURCE\REPOS\12_4_1_3\OOP\7LAB_A\7LAB_A\SOURCE.CPP
/c /ZI /JMC /nologo /W3 /WX- /diagnostics:column /sdl /Od /Oy- /D WIN32 /D _DEBUG /D _CONSOLE /D _UNICODE /D UNICODE /Gm- /EHsc /RTC1 /MDd /GS /fp:precise /permissive- /Zc:wchar_t /Zc:forScope /Zc:inline /Fo"DEBUG\\" /Fd"DEBUG\VC142.PDB" /Gd /TP /analyze- /FC C:\USERS\OF913\SOURCE\REPOS\12_4_1_3\OOP\7LAB_A\7LAB_A\SOURCE.CPP
^C:\USERS\MINIS\DOWNLOADS\NASTE\НАСТЕ\OOP\7LAB_A\7LAB_A\7LAB_A.CPP
/c /ZI /JMC /nologo /W3 /WX- /diagnostics:column /sdl /Od /Oy- /D WIN32 /D _DEBUG /D _CONSOLE /D _UNICODE /D UNICODE /Gm- /EHsc /RTC1 /MDd /GS /fp:precise /permissive- /Zc:wchar_t /Zc:forScope /Zc:inline /Fo"DEBUG\\" /Fd"DEBUG\VC142.PDB" /Gd /TP /analyze- /FC C:\USERS\MINIS\DOWNLOADS\NASTE\НАСТЕ\OOP\7LAB_A\7LAB_A\7LAB_A.CPP
^C:\USERS\MINIS\DOWNLOADS\NASTE\НАСТЕ\OOP\7LAB_A\7LAB_A\SOURCE.CPP
/c /ZI /JMC /nologo /W3 /WX- /diagnostics:column /sdl /Od /Oy- /D WIN32 /D _DEBUG /D _CONSOLE /D _UNICODE /D UNICODE /Gm- /EHsc /RTC1 /MDd /GS /fp:precise /permissive- /Zc:wchar_t /Zc:forScope /Zc:inline /Fo"DEBUG\\" /Fd"DEBUG\VC142.PDB" /Gd /TP /analyze- /FC C:\USERS\MINIS\DOWNLOADS\NASTE\НАСТЕ\OOP\7LAB_A\7LAB_A\SOURCE.CPP
