^C:\USERS\OF913\SOURCE\REPOS\12_4_1_3\OOP\7LAB_A\7LAB_A\DEBUG\7LAB_A.OBJ|C:\USERS\OF913\SOURCE\REPOS\12_4_1_3\OOP\7LAB_A\7LAB_A\DEBUG\SOURCE.OBJ
C:\USERS\OF913\SOURCE\REPOS\12_4_1_3\OOP\7LAB_A\DEBUG\7LAB_A.EXE
C:\USERS\OF913\SOURCE\REPOS\12_4_1_3\OOP\7LAB_A\DEBUG\7LAB_A.ILK
C:\USERS\OF913\SOURCE\REPOS\12_4_1_3\OOP\7LAB_A\DEBUG\7LAB_A.PDB
^C:\USERS\MINIS\DOWNLOADS\NASTE\НАСТЕ\OOP\7LAB_A\7LAB_A\DEBUG\7LAB_A.OBJ|C:\USERS\MINIS\DOWNLOADS\NASTE\НАСТЕ\OOP\7LAB_A\7LAB_A\DEBUG\SOURCE.OBJ
C:\USERS\MINIS\DOWNLOADS\NASTE\Насте\OOP\7LAB_A\DEBUG\7LAB_A.ILK
C:\USERS\MINIS\DOWNLOADS\NASTE\Насте\OOP\7LAB_A\DEBUG\7LAB_A.EXE
C:\USERS\MINIS\DOWNLOADS\NASTE\НАСТЕ\OOP\7LAB_A\DEBUG\7LAB_A.PDB
