^C:\USERS\OF913\SOURCE\REPOS\12_4_1_3\OOP\5LAB\5LAB\5LAB.CPP
/c /ZI /JMC /nologo /W3 /WX- /diagnostics:column /sdl /Od /Oy- /D WIN32 /D _DEBUG /D _CONSOLE /D _UNICODE /D UNICODE /Gm- /EHsc /RTC1 /MDd /GS /fp:precise /permissive- /Zc:wchar_t /Zc:forScope /Zc:inline /Fo"DEBUG\\" /Fd"DEBUG\VC142.PDB" /Gd /TP /analyze- /FC C:\USERS\OF913\SOURCE\REPOS\12_4_1_3\OOP\5LAB\5LAB\5LAB.CPP
^C:\USERS\OF913\SOURCE\REPOS\12_4_1_3\OOP\5LAB\5LAB\SOURCE.CPP
/c /ZI /JMC /nologo /W3 /WX- /diagnostics:column /sdl /Od /Oy- /D WIN32 /D _DEBUG /D _CONSOLE /D _UNICODE /D UNICODE /Gm- /EHsc /RTC1 /MDd /GS /fp:precise /permissive- /Zc:wchar_t /Zc:forScope /Zc:inline /Fo"DEBUG\\" /Fd"DEBUG\VC142.PDB" /Gd /TP /analyze- /FC C:\USERS\OF913\SOURCE\REPOS\12_4_1_3\OOP\5LAB\5LAB\SOURCE.CPP
^C:\USERS\OF913\ONEDRIVE\РАБОЧИЙ СТОЛ\НАСТЕ\OOP\5LAB\5LAB\5LAB.CPP
/c /ZI /JMC /nologo /W3 /WX- /diagnostics:column /sdl /Od /Oy- /D WIN32 /D _DEBUG /D _CONSOLE /D _UNICODE /D UNICODE /Gm- /EHsc /RTC1 /MDd /GS /fp:precise /permissive- /Zc:wchar_t /Zc:forScope /Zc:inline /Fo"DEBUG\\" /Fd"DEBUG\VC142.PDB" /Gd /TP /analyze- /FC C:\USERS\OF913\ONEDRIVE\РАБОЧИЙ СТОЛ\НАСТЕ\OOP\5LAB\5LAB\5LAB.CPP
^C:\USERS\OF913\ONEDRIVE\РАБОЧИЙ СТОЛ\НАСТЕ\OOP\5LAB\5LAB\SOURCE.CPP
/c /ZI /JMC /nologo /W3 /WX- /diagnostics:column /sdl /Od /Oy- /D WIN32 /D _DEBUG /D _CONSOLE /D _UNICODE /D UNICODE /Gm- /EHsc /RTC1 /MDd /GS /fp:precise /permissive- /Zc:wchar_t /Zc:forScope /Zc:inline /Fo"DEBUG\\" /Fd"DEBUG\VC142.PDB" /Gd /TP /analyze- /FC C:\USERS\OF913\ONEDRIVE\РАБОЧИЙ СТОЛ\НАСТЕ\OOP\5LAB\5LAB\SOURCE.CPP
^C:\ЛАБ23\5LABOOP\5LAB\5LAB.CPP
/c /ZI /JMC /nologo /W3 /WX- /diagnostics:column /sdl /Od /Oy- /D WIN32 /D _DEBUG /D _CONSOLE /D _UNICODE /D UNICODE /Gm- /EHsc /RTC1 /MDd /GS /fp:precise /permissive- /Zc:wchar_t /Zc:forScope /Zc:inline /Fo"DEBUG\\" /Fd"DEBUG\VC142.PDB" /Gd /TP /analyze- /FC C:\ЛАБ23\5LABOOP\5LAB\5LAB.CPP
^C:\ЛАБ23\5LABOOP\5LAB\SOURCE.CPP
/c /ZI /JMC /nologo /W3 /WX- /diagnostics:column /sdl /Od /Oy- /D WIN32 /D _DEBUG /D _CONSOLE /D _UNICODE /D UNICODE /Gm- /EHsc /RTC1 /MDd /GS /fp:precise /permissive- /Zc:wchar_t /Zc:forScope /Zc:inline /Fo"DEBUG\\" /Fd"DEBUG\VC142.PDB" /Gd /TP /analyze- /FC C:\ЛАБ23\5LABOOP\5LAB\SOURCE.CPP
