^C:\USERS\OF913\SOURCE\REPOS\12_4_1_3\OOP\5LAB\5LAB\DEBUG\5LAB.OBJ|C:\USERS\OF913\SOURCE\REPOS\12_4_1_3\OOP\5LAB\5LAB\DEBUG\SOURCE.OBJ
/OUT:"C:\USERS\OF913\SOURCE\REPOS\12_4_1_3\OOP\5LAB\DEBUG\5LAB.EXE" /INCREMENTAL /NOLOGO KERNEL32.LIB USER32.LIB GDI32.LIB WINSPOOL.LIB COMDLG32.LIB ADVAPI32.LIB SHELL32.LIB OLE32.LIB OLEAUT32.LIB UUID.LIB ODBC32.LIB ODBCCP32.LIB /MANIFEST /MANIFESTUAC:"level='asInvoker' uiAccess='false'" /manifest:embed /DEBUG:FASTLINK /PDB:"C:\USERS\OF913\SOURCE\REPOS\12_4_1_3\OOP\5LAB\DEBUG\5LAB.PDB" /SUBSYSTEM:CONSOLE /TLBID:1 /DYNAMICBASE /NXCOMPAT /IMPLIB:"C:\USERS\OF913\SOURCE\REPOS\12_4_1_3\OOP\5LAB\DEBUG\5LAB.LIB" /MACHINE:X86 DEBUG\5LAB.OBJ
DEBUG\SOURCE.OBJ
^C:\USERS\OF913\ONEDRIVE\РАБОЧИЙ СТОЛ\НАСТЕ\OOP\5LAB\5LAB\DEBUG\5LAB.OBJ|C:\USERS\OF913\ONEDRIVE\РАБОЧИЙ СТОЛ\НАСТЕ\OOP\5LAB\5LAB\DEBUG\SOURCE.OBJ
/OUT:"C:\USERS\OF913\ONEDRIVE\РАБОЧИЙ СТОЛ\НАСТЕ\OOP\5LAB\DEBUG\5LAB.EXE" /INCREMENTAL /NOLOGO KERNEL32.LIB USER32.LIB GDI32.LIB WINSPOOL.LIB COMDLG32.LIB ADVAPI32.LIB SHELL32.LIB OLE32.LIB OLEAUT32.LIB UUID.LIB ODBC32.LIB ODBCCP32.LIB /MANIFEST /MANIFESTUAC:"level='asInvoker' uiAccess='false'" /manifest:embed /DEBUG:FASTLINK /PDB:"C:\USERS\OF913\ONEDRIVE\РАБОЧИЙ СТОЛ\НАСТЕ\OOP\5LAB\DEBUG\5LAB.PDB" /SUBSYSTEM:CONSOLE /TLBID:1 /DYNAMICBASE /NXCOMPAT /IMPLIB:"C:\USERS\OF913\ONEDRIVE\РАБОЧИЙ СТОЛ\НАСТЕ\OOP\5LAB\DEBUG\5LAB.LIB" /MACHINE:X86 DEBUG\5LAB.OBJ
DEBUG\SOURCE.OBJ
^C:\ЛАБ23\5LABOOP\5LAB\DEBUG\5LAB.OBJ|C:\ЛАБ23\5LABOOP\5LAB\DEBUG\SOURCE.OBJ
/OUT:"C:\ЛАБ23\5LABOOP\DEBUG\5LAB.EXE" /INCREMENTAL /NOLOGO KERNEL32.LIB USER32.LIB GDI32.LIB WINSPOOL.LIB COMDLG32.LIB ADVAPI32.LIB SHELL32.LIB OLE32.LIB OLEAUT32.LIB UUID.LIB ODBC32.LIB ODBCCP32.LIB /MANIFEST /MANIFESTUAC:"level='asInvoker' uiAccess='false'" /manifest:embed /DEBUG:FASTLINK /PDB:"C:\ЛАБ23\5LABOOP\DEBUG\5LAB.PDB" /SUBSYSTEM:CONSOLE /TLBID:1 /DYNAMICBASE /NXCOMPAT /IMPLIB:"C:\ЛАБ23\5LABOOP\DEBUG\5LAB.LIB" /MACHINE:X86 DEBUG\5LAB.OBJ
DEBUG\SOURCE.OBJ
